<svg xmlns="http://www.w3.org/2000/svg" width="26" height="26" viewBox="0 0 26 26">
  <g id="Layer_2" data-name="Layer 2" transform="translate(0 -0.481)">
    <g id="invisible_box" data-name="invisible box">
      <rect id="Rectangle_128" data-name="Rectangle 128" width="26" height="26" transform="translate(0 0.481)" fill="none"/>
    </g>
    <g id="icons_Q2" data-name="icons Q2" transform="translate(1.103 1.103)">
      <path id="Path_142" data-name="Path 142" d="M14.137,4.207a9.93,9.93,0,1,1-9.93,9.93,9.93,9.93,0,0,1,9.93-9.93m0-2.207a12.082,12.082,0,1,0,8.6,3.539A12.137,12.137,0,0,0,14.137,2Z" transform="translate(-2 -2)" fill="#fff"/>
      <path id="Path_143" data-name="Path 143" d="M21.51,19.947,24.6,16.913a1.159,1.159,0,0,0,.11-1.49,1.048,1.048,0,0,0-1.655-.11L19.966,18.4l-3.089-3.089a1.048,1.048,0,0,0-1.655.11,1.159,1.159,0,0,0,.11,1.49l3.089,3.034-3.089,3.034a1.159,1.159,0,0,0-.11,1.49,1.048,1.048,0,0,0,1.655.11l3.089-3.089,3.089,3.089a1.048,1.048,0,0,0,1.655-.11,1.159,1.159,0,0,0-.11-1.49Z" transform="translate(-7.829 -7.81)" fill="#fff"/>
    </g>
  </g>
</svg>
